COVID-19
…
Summary.

coronavirus %>% 
  group_by(Country.Region, type) %>%
  summarize(total_cases = sum(cases)) %>%
  arrange(-total_cases)

## # A tibble: 159 x 3
## # Groups:   Country.Region [102]
##    Country.Region type      total_cases
##    <chr>          <chr>           <int>
##  1 Mainland China confirmed       80652
##  2 Mainland China recovered       55478
##  3 South Korea    confirmed        7041
##  4 Italy          confirmed        5883
##  5 Iran           confirmed        5823
##  6 Mainland China death            3070
##  7 Iran           recovered        1669
##  8 France         confirmed         949
##  9 Germany        confirmed         799
## 10 Others         confirmed         696
## #  with 149 more rows
…
