Lab 1: Data Science in R
…
To compile this notebook into a html report use Knit icon above the RStudio code editor. At this point the compilation will fail. To make it work you have to fix the TODO that are spread out in the document. Additionally, there are a total of 12 questions and one bonus question.

Plotting

Try to calculate the number \(\pi\) yourself using computer simulations. It is usually very helpful to keep plotting every step of your simulation to make sure that your code is correct. I recommend using the R package ggplot2 for plotting. It implements the grammar of graphics that allows you build plots in a modular way. Here is an example to plot points. We use the data set mpg from package ggplot2.

mpg

## # A tibble: 234 x 11
##    manufacturer model displ  year   cyl trans drv     cty   hwy fl    class
##    <chr>        <chr> <dbl> <int> <int> <chr> <chr> <int> <int> <chr> <chr>
##  1 audi         a4      1.8  1999     4 auto f        18    29 p     comp
##  2 audi         a4      1.8  1999     4 manu f        21    29 p     comp
##  3 audi         a4      2    2008     4 manu f        20    31 p     comp
##  4 audi         a4      2    2008     4 auto f        21    30 p     comp
##  5 audi         a4      2.8  1999     6 auto f        16    26 p     comp
##  6 audi         a4      2.8  1999     6 manu f        18    26 p     comp
##  7 audi         a4      3.1  2008     6 auto f        18    27 p     comp
##  8 audi         a4 q   1.8  1999     4 manu 4        18    26 p     comp
##  9 audi         a4 q   1.8  1999     4 auto 4        16    25 p     comp
## 10 audi         a4 q   2    2008     4 manu 4        20    28 p     comp
## #  with 224 more rows
…
Try to approximate \(\pi\) from the lecture using function sample. The code below will help you get started. The table tb_pi (called tibble in R) has the x and y coordinates for 1000 uniformly sampled points on the unit square.

set.seed(25)
n = 1000
sample_pi_table = function() {
  tibble(
    x = runif(n),
    y = runif(n)
  )  
}
tb_pi = sample_pi_table()
tb_pi

## # A tibble: 1,000 x 2
##         x      y
##     <dbl>  <dbl>
##  1 0.416  0.896 
##  2 0.695  0.167 
##  3 0.149  0.940 
##  4 0.897  0.0373
##  5 0.124  0.227 
##  6 0.985  0.797 
##  7 0.626  0.595 
##  8 0.338  0.318 
##  9 0.0668 0.320 
## 10 0.282  0.860 
## #  with 990 more rows
…
